^C:\USERS\MEREN\DOCUMENTS\ENDGAME\ENDGAME\SRC\MAIN.CPP
/c /I"C:\PROGRAM FILES (X86)\MYSQL\MYSQL_SERVER-5.7.26-WIN32\INCLUDE" /I"C:\PROGRAM FILES (X86)\MYSQL\CONNECTOR C++ 8.0\INCLUDE" /ZI /JMC /nologo /W3 /WX- /diagnostics:classic /sdl /Od /Oy- /D _CRT_SECURE_NO_WARNINGS /D _UNICODE /D UNICODE /Gm- /EHsc /RTC1 /MDd /GS /fp:precise /permissive- /Zc:wchar_t /Zc:forScope /Zc:inline /Fo"DEBUG\\" /Fd"DEBUG\VC141.PDB" /Gd /TP /analyze- /FC C:\USERS\MEREN\DOCUMENTS\ENDGAME\ENDGAME\SRC\MAIN.CPP
^C:\USERS\SAMUELE MUSAZZI\DESKTOP\SAMUELE\CODING\GIT PROJECTS\ENDGAME\ENDGAME\INCLUDE\HESP.CPP
/c /I"C:\PROGRAM FILES (X86)\MYSQL\CONNECTOR C++ 8.0\INCLUDE" /I"C:\PROGRAM FILES (X86)\MYSQL\MYSQL-5.7.26-WIN32\INCLUDE" /I"C:\PROGRAM FILES (X86)\MYSQL\MYSQL_SERVER-5.7.26-WIN32\INCLUDE" /I"C:\PROGRAM FILES (X86)\MYSQL\CONNECTOR C++ 8.0\INCLUDE" /ZI /JMC /nologo /W3 /WX- /diagnostics:classic /sdl /Od /Oy- /D _CRT_SECURE_NO_WARNINGS /D _UNICODE /D UNICODE /Gm- /EHsc /RTC1 /MDd /GS /fp:precise /permissive- /Zc:wchar_t /Zc:forScope /Zc:inline /Fo"DEBUG\\" /Fd"DEBUG\VC141.PDB" /Gd /TP /analyze- /FC C:\USERS\SAMUELE MUSAZZI\DESKTOP\SAMUELE\CODING\GIT PROJECTS\ENDGAME\ENDGAME\INCLUDE\HESP.CPP
^C:\USERS\SAMUELE MUSAZZI\DESKTOP\SAMUELE\CODING\GIT PROJECTS\ENDGAME\ENDGAME\SRC\BHOP.CPP
/c /I"C:\PROGRAM FILES (X86)\MYSQL\CONNECTOR C++ 8.0\INCLUDE" /I"C:\PROGRAM FILES (X86)\MYSQL\MYSQL-5.7.26-WIN32\INCLUDE" /I"C:\PROGRAM FILES (X86)\MYSQL\MYSQL_SERVER-5.7.26-WIN32\INCLUDE" /I"C:\PROGRAM FILES (X86)\MYSQL\CONNECTOR C++ 8.0\INCLUDE" /ZI /JMC /nologo /W3 /WX- /diagnostics:classic /sdl /Od /Oy- /D _CRT_SECURE_NO_WARNINGS /D _UNICODE /D UNICODE /Gm- /EHsc /RTC1 /MDd /GS /fp:precise /permissive- /Zc:wchar_t /Zc:forScope /Zc:inline /Fo"DEBUG\\" /Fd"DEBUG\VC141.PDB" /Gd /TP /analyze- /FC C:\USERS\SAMUELE MUSAZZI\DESKTOP\SAMUELE\CODING\GIT PROJECTS\ENDGAME\ENDGAME\SRC\BHOP.CPP
^C:\USERS\SAMUELE MUSAZZI\DESKTOP\SAMUELE\CODING\GIT PROJECTS\ENDGAME\ENDGAME\SRC\CAUTH.CPP
/c /I"C:\PROGRAM FILES (X86)\MYSQL\CONNECTOR C++ 8.0\INCLUDE" /I"C:\PROGRAM FILES (X86)\MYSQL\MYSQL-5.7.26-WIN32\INCLUDE" /I"C:\PROGRAM FILES (X86)\MYSQL\MYSQL_SERVER-5.7.26-WIN32\INCLUDE" /I"C:\PROGRAM FILES (X86)\MYSQL\CONNECTOR C++ 8.0\INCLUDE" /ZI /JMC /nologo /W3 /WX- /diagnostics:classic /sdl /Od /Oy- /D _CRT_SECURE_NO_WARNINGS /D _UNICODE /D UNICODE /Gm- /EHsc /RTC1 /MDd /GS /fp:precise /permissive- /Zc:wchar_t /Zc:forScope /Zc:inline /Fo"DEBUG\\" /Fd"DEBUG\VC141.PDB" /Gd /TP /analyze- /FC C:\USERS\SAMUELE MUSAZZI\DESKTOP\SAMUELE\CODING\GIT PROJECTS\ENDGAME\ENDGAME\SRC\CAUTH.CPP
^C:\USERS\SAMUELE MUSAZZI\DESKTOP\SAMUELE\CODING\GIT PROJECTS\ENDGAME\ENDGAME\SRC\CDB_CONNECT.CPP
/c /I"C:\PROGRAM FILES (X86)\MYSQL\CONNECTOR C++ 8.0\INCLUDE" /I"C:\PROGRAM FILES (X86)\MYSQL\MYSQL-5.7.26-WIN32\INCLUDE" /I"C:\PROGRAM FILES (X86)\MYSQL\MYSQL_SERVER-5.7.26-WIN32\INCLUDE" /I"C:\PROGRAM FILES (X86)\MYSQL\CONNECTOR C++ 8.0\INCLUDE" /ZI /JMC /nologo /W3 /WX- /diagnostics:classic /sdl /Od /Oy- /D _CRT_SECURE_NO_WARNINGS /D _UNICODE /D UNICODE /Gm- /EHsc /RTC1 /MDd /GS /fp:precise /permissive- /Zc:wchar_t /Zc:forScope /Zc:inline /Fo"DEBUG\\" /Fd"DEBUG\VC141.PDB" /Gd /TP /analyze- /FC C:\USERS\SAMUELE MUSAZZI\DESKTOP\SAMUELE\CODING\GIT PROJECTS\ENDGAME\ENDGAME\SRC\CDB_CONNECT.CPP
^C:\USERS\SAMUELE MUSAZZI\DESKTOP\SAMUELE\CODING\GIT PROJECTS\ENDGAME\ENDGAME\SRC\MEMORYHANDLING.CPP
/c /I"C:\PROGRAM FILES (X86)\MYSQL\CONNECTOR C++ 8.0\INCLUDE" /I"C:\PROGRAM FILES (X86)\MYSQL\MYSQL-5.7.26-WIN32\INCLUDE" /I"C:\PROGRAM FILES (X86)\MYSQL\MYSQL_SERVER-5.7.26-WIN32\INCLUDE" /I"C:\PROGRAM FILES (X86)\MYSQL\CONNECTOR C++ 8.0\INCLUDE" /ZI /JMC /nologo /W3 /WX- /diagnostics:classic /sdl /Od /Oy- /D _CRT_SECURE_NO_WARNINGS /D _UNICODE /D UNICODE /Gm- /EHsc /RTC1 /MDd /GS /fp:precise /permissive- /Zc:wchar_t /Zc:forScope /Zc:inline /Fo"DEBUG\\" /Fd"DEBUG\VC141.PDB" /Gd /TP /analyze- /FC C:\USERS\SAMUELE MUSAZZI\DESKTOP\SAMUELE\CODING\GIT PROJECTS\ENDGAME\ENDGAME\SRC\MEMORYHANDLING.CPP
^C:\USERS\SAMUELE MUSAZZI\DESKTOP\SAMUELE\CODING\GIT PROJECTS\ENDGAME\ENDGAME\SRC\OFFSETS.CPP
/c /I"C:\PROGRAM FILES (X86)\MYSQL\CONNECTOR C++ 8.0\INCLUDE" /I"C:\PROGRAM FILES (X86)\MYSQL\MYSQL-5.7.26-WIN32\INCLUDE" /I"C:\PROGRAM FILES (X86)\MYSQL\MYSQL_SERVER-5.7.26-WIN32\INCLUDE" /I"C:\PROGRAM FILES (X86)\MYSQL\CONNECTOR C++ 8.0\INCLUDE" /ZI /JMC /nologo /W3 /WX- /diagnostics:classic /sdl /Od /Oy- /D _CRT_SECURE_NO_WARNINGS /D _UNICODE /D UNICODE /Gm- /EHsc /RTC1 /MDd /GS /fp:precise /permissive- /Zc:wchar_t /Zc:forScope /Zc:inline /Fo"DEBUG\\" /Fd"DEBUG\VC141.PDB" /Gd /TP /analyze- /FC C:\USERS\SAMUELE MUSAZZI\DESKTOP\SAMUELE\CODING\GIT PROJECTS\ENDGAME\ENDGAME\SRC\OFFSETS.CPP
^C:\USERS\SAMUELE MUSAZZI\DESKTOP\SAMUELE\CODING\GIT PROJECTS\ENDGAME\ENDGAME\SRC\TRIGGERBOT.CPP
/c /I"C:\PROGRAM FILES (X86)\MYSQL\CONNECTOR C++ 8.0\INCLUDE" /I"C:\PROGRAM FILES (X86)\MYSQL\MYSQL-5.7.26-WIN32\INCLUDE" /I"C:\PROGRAM FILES (X86)\MYSQL\MYSQL_SERVER-5.7.26-WIN32\INCLUDE" /I"C:\PROGRAM FILES (X86)\MYSQL\CONNECTOR C++ 8.0\INCLUDE" /ZI /JMC /nologo /W3 /WX- /diagnostics:classic /sdl /Od /Oy- /D _CRT_SECURE_NO_WARNINGS /D _UNICODE /D UNICODE /Gm- /EHsc /RTC1 /MDd /GS /fp:precise /permissive- /Zc:wchar_t /Zc:forScope /Zc:inline /Fo"DEBUG\\" /Fd"DEBUG\VC141.PDB" /Gd /TP /analyze- /FC C:\USERS\SAMUELE MUSAZZI\DESKTOP\SAMUELE\CODING\GIT PROJECTS\ENDGAME\ENDGAME\SRC\TRIGGERBOT.CPP
^C:\USERS\SAMUELE MUSAZZI\DESKTOP\SAMUELE\CODING\GIT PROJECTS\ENDGAME\ENDGAME\SRC\CDIRECTX.CPP
/c /I"C:\PROGRAM FILES (X86)\MYSQL\CONNECTOR C++ 8.0\INCLUDE" /I"C:\PROGRAM FILES (X86)\MYSQL\MYSQL-5.7.26-WIN32\INCLUDE" /I"C:\PROGRAM FILES (X86)\MYSQL\MYSQL_SERVER-5.7.26-WIN32\INCLUDE" /I"C:\PROGRAM FILES (X86)\MYSQL\CONNECTOR C++ 8.0\INCLUDE" /ZI /JMC /nologo /W3 /WX- /diagnostics:classic /sdl /Od /Oy- /D _CRT_SECURE_NO_WARNINGS /D _UNICODE /D UNICODE /Gm- /EHsc /RTC1 /MDd /GS /fp:precise /permissive- /Zc:wchar_t /Zc:forScope /Zc:inline /Fo"DEBUG\\" /Fd"DEBUG\VC141.PDB" /Gd /TP /analyze- /FC C:\USERS\SAMUELE MUSAZZI\DESKTOP\SAMUELE\CODING\GIT PROJECTS\ENDGAME\ENDGAME\SRC\CDIRECTX.CPP
^C:\USERS\SAMUELE MUSAZZI\DESKTOP\SAMUELE\CODING\GIT PROJECTS\ENDGAME\ENDGAME\SRC\CDRAWINGS.CPP
/c /I"C:\PROGRAM FILES (X86)\MYSQL\CONNECTOR C++ 8.0\INCLUDE" /I"C:\PROGRAM FILES (X86)\MYSQL\MYSQL-5.7.26-WIN32\INCLUDE" /I"C:\PROGRAM FILES (X86)\MYSQL\MYSQL_SERVER-5.7.26-WIN32\INCLUDE" /I"C:\PROGRAM FILES (X86)\MYSQL\CONNECTOR C++ 8.0\INCLUDE" /ZI /JMC /nologo /W3 /WX- /diagnostics:classic /sdl /Od /Oy- /D _CRT_SECURE_NO_WARNINGS /D _UNICODE /D UNICODE /Gm- /EHsc /RTC1 /MDd /GS /fp:precise /permissive- /Zc:wchar_t /Zc:forScope /Zc:inline /Fo"DEBUG\\" /Fd"DEBUG\VC141.PDB" /Gd /TP /analyze- /FC C:\USERS\SAMUELE MUSAZZI\DESKTOP\SAMUELE\CODING\GIT PROJECTS\ENDGAME\ENDGAME\SRC\CDRAWINGS.CPP
^C:\USERS\SAMUELE MUSAZZI\DESKTOP\SAMUELE\CODING\GIT PROJECTS\ENDGAME\ENDGAME\SRC\CESP.CPP
/c /I"C:\PROGRAM FILES (X86)\MYSQL\CONNECTOR C++ 8.0\INCLUDE" /I"C:\PROGRAM FILES (X86)\MYSQL\MYSQL-5.7.26-WIN32\INCLUDE" /I"C:\PROGRAM FILES (X86)\MYSQL\MYSQL_SERVER-5.7.26-WIN32\INCLUDE" /I"C:\PROGRAM FILES (X86)\MYSQL\CONNECTOR C++ 8.0\INCLUDE" /ZI /JMC /nologo /W3 /WX- /diagnostics:classic /sdl /Od /Oy- /D _CRT_SECURE_NO_WARNINGS /D _UNICODE /D UNICODE /Gm- /EHsc /RTC1 /MDd /GS /fp:precise /permissive- /Zc:wchar_t /Zc:forScope /Zc:inline /Fo"DEBUG\\" /Fd"DEBUG\VC141.PDB" /Gd /TP /analyze- /FC C:\USERS\SAMUELE MUSAZZI\DESKTOP\SAMUELE\CODING\GIT PROJECTS\ENDGAME\ENDGAME\SRC\CESP.CPP
^C:\USERS\SAMUELE MUSAZZI\DESKTOP\SAMUELE\CODING\GIT PROJECTS\ENDGAME\ENDGAME\SRC\CMATH.CPP
/c /I"C:\PROGRAM FILES (X86)\MYSQL\CONNECTOR C++ 8.0\INCLUDE" /I"C:\PROGRAM FILES (X86)\MYSQL\MYSQL-5.7.26-WIN32\INCLUDE" /I"C:\PROGRAM FILES (X86)\MYSQL\MYSQL_SERVER-5.7.26-WIN32\INCLUDE" /I"C:\PROGRAM FILES (X86)\MYSQL\CONNECTOR C++ 8.0\INCLUDE" /ZI /JMC /nologo /W3 /WX- /diagnostics:classic /sdl /Od /Oy- /D _CRT_SECURE_NO_WARNINGS /D _UNICODE /D UNICODE /Gm- /EHsc /RTC1 /MDd /GS /fp:precise /permissive- /Zc:wchar_t /Zc:forScope /Zc:inline /Fo"DEBUG\\" /Fd"DEBUG\VC141.PDB" /Gd /TP /analyze- /FC C:\USERS\SAMUELE MUSAZZI\DESKTOP\SAMUELE\CODING\GIT PROJECTS\ENDGAME\ENDGAME\SRC\CMATH.CPP
^C:\USERS\SAMUELE MUSAZZI\DESKTOP\SAMUELE\CODING\GIT PROJECTS\ENDGAME\ENDGAME\SRC\CMAIN.CPP
/c /I"C:\PROGRAM FILES (X86)\MYSQL\CONNECTOR C++ 8.0\INCLUDE" /I"C:\PROGRAM FILES (X86)\MYSQL\MYSQL-5.7.26-WIN32\INCLUDE" /I"C:\PROGRAM FILES (X86)\MYSQL\MYSQL_SERVER-5.7.26-WIN32\INCLUDE" /I"C:\PROGRAM FILES (X86)\MYSQL\CONNECTOR C++ 8.0\INCLUDE" /ZI /JMC /nologo /W3 /WX- /diagnostics:classic /sdl /Od /Oy- /D _CRT_SECURE_NO_WARNINGS /D _UNICODE /D UNICODE /Gm- /EHsc /RTC1 /MDd /GS /fp:precise /permissive- /Zc:wchar_t /Zc:forScope /Zc:inline /Fo"DEBUG\\" /Fd"DEBUG\VC141.PDB" /Gd /TP /analyze- /FC C:\USERS\SAMUELE MUSAZZI\DESKTOP\SAMUELE\CODING\GIT PROJECTS\ENDGAME\ENDGAME\SRC\CMAIN.CPP
^C:\USERS\SAMUELE MUSAZZI\DESKTOP\SAMUELE\CODING\GIT PROJECTS\ENDGAME\ENDGAME\SRC\AIMBOT.CPP
/c /I"C:\PROGRAM FILES (X86)\MYSQL\CONNECTOR C++ 8.0\INCLUDE" /I"C:\PROGRAM FILES (X86)\MYSQL\MYSQL-5.7.26-WIN32\INCLUDE" /I"C:\PROGRAM FILES (X86)\MYSQL\MYSQL_SERVER-5.7.26-WIN32\INCLUDE" /I"C:\PROGRAM FILES (X86)\MYSQL\CONNECTOR C++ 8.0\INCLUDE" /ZI /JMC /nologo /W3 /WX- /diagnostics:classic /sdl /Od /Oy- /D _CRT_SECURE_NO_WARNINGS /D _UNICODE /D UNICODE /Gm- /EHsc /RTC1 /MDd /GS /fp:precise /permissive- /Zc:wchar_t /Zc:forScope /Zc:inline /Fo"DEBUG\\" /Fd"DEBUG\VC141.PDB" /Gd /TP /analyze- /FC C:\USERS\SAMUELE MUSAZZI\DESKTOP\SAMUELE\CODING\GIT PROJECTS\ENDGAME\ENDGAME\SRC\AIMBOT.CPP
^C:\USERS\MEREN\DOCUMENTS\ENDGAME\ENDGAME\INCLUDE\HESP.CPP
/c /I"C:\PROGRAM FILES (X86)\MYSQL\CONNECTOR C++ 8.0\INCLUDE" /I"C:\PROGRAM FILES (X86)\MYSQL\MYSQL-5.7.26-WIN32\INCLUDE" /I"C:\PROGRAM FILES (X86)\MYSQL\MYSQL_SERVER-5.7.26-WIN32\INCLUDE" /I"C:\PROGRAM FILES (X86)\MYSQL\CONNECTOR C++ 8.0\INCLUDE" /ZI /JMC /nologo /W3 /WX- /diagnostics:classic /sdl /Od /Oy- /D _CRT_SECURE_NO_WARNINGS /D _UNICODE /D UNICODE /Gm- /EHsc /RTC1 /MDd /GS /fp:precise /permissive- /Zc:wchar_t /Zc:forScope /Zc:inline /Fo"DEBUG\\" /Fd"DEBUG\VC141.PDB" /Gd /TP /analyze- /FC C:\USERS\MEREN\DOCUMENTS\ENDGAME\ENDGAME\INCLUDE\HESP.CPP
^C:\USERS\MEREN\DOCUMENTS\ENDGAME\ENDGAME\SRC\CDB_CONNECT.CPP
/c /I"C:\PROGRAM FILES (X86)\MYSQL\CONNECTOR C++ 8.0\INCLUDE" /I"C:\PROGRAM FILES (X86)\MYSQL\MYSQL-5.7.26-WIN32\INCLUDE" /I"C:\PROGRAM FILES (X86)\MYSQL\MYSQL_SERVER-5.7.26-WIN32\INCLUDE" /I"C:\PROGRAM FILES (X86)\MYSQL\CONNECTOR C++ 8.0\INCLUDE" /ZI /JMC /nologo /W3 /WX- /diagnostics:classic /sdl /Od /Oy- /D _CRT_SECURE_NO_WARNINGS /D _UNICODE /D UNICODE /Gm- /EHsc /RTC1 /MDd /GS /fp:precise /permissive- /Zc:wchar_t /Zc:forScope /Zc:inline /Fo"DEBUG\\" /Fd"DEBUG\VC141.PDB" /Gd /TP /analyze- /FC C:\USERS\MEREN\DOCUMENTS\ENDGAME\ENDGAME\SRC\CDB_CONNECT.CPP
^C:\USERS\MEREN\DOCUMENTS\ENDGAME\ENDGAME\SRC\CAUTH.CPP
/c /I"C:\PROGRAM FILES (X86)\MYSQL\CONNECTOR C++ 8.0\INCLUDE" /I"C:\PROGRAM FILES (X86)\MYSQL\MYSQL-5.7.26-WIN32\INCLUDE" /I"C:\PROGRAM FILES (X86)\MYSQL\MYSQL_SERVER-5.7.26-WIN32\INCLUDE" /I"C:\PROGRAM FILES (X86)\MYSQL\CONNECTOR C++ 8.0\INCLUDE" /ZI /JMC /nologo /W3 /WX- /diagnostics:classic /sdl /Od /Oy- /D _CRT_SECURE_NO_WARNINGS /D _UNICODE /D UNICODE /Gm- /EHsc /RTC1 /MDd /GS /fp:precise /permissive- /Zc:wchar_t /Zc:forScope /Zc:inline /Fo"DEBUG\\" /Fd"DEBUG\VC141.PDB" /Gd /TP /analyze- /FC C:\USERS\MEREN\DOCUMENTS\ENDGAME\ENDGAME\SRC\CAUTH.CPP
^C:\USERS\MEREN\DOCUMENTS\ENDGAME\ENDGAME\SRC\MEMORYHANDLING.CPP
/c /I"C:\PROGRAM FILES (X86)\MYSQL\CONNECTOR C++ 8.0\INCLUDE" /I"C:\PROGRAM FILES (X86)\MYSQL\MYSQL-5.7.26-WIN32\INCLUDE" /I"C:\PROGRAM FILES (X86)\MYSQL\MYSQL_SERVER-5.7.26-WIN32\INCLUDE" /I"C:\PROGRAM FILES (X86)\MYSQL\CONNECTOR C++ 8.0\INCLUDE" /ZI /JMC /nologo /W3 /WX- /diagnostics:classic /sdl /Od /Oy- /D _CRT_SECURE_NO_WARNINGS /D _UNICODE /D UNICODE /Gm- /EHsc /RTC1 /MDd /GS /fp:precise /permissive- /Zc:wchar_t /Zc:forScope /Zc:inline /Fo"DEBUG\\" /Fd"DEBUG\VC141.PDB" /Gd /TP /analyze- /FC C:\USERS\MEREN\DOCUMENTS\ENDGAME\ENDGAME\SRC\MEMORYHANDLING.CPP
^C:\USERS\MEREN\DOCUMENTS\ENDGAME\ENDGAME\SRC\OFFSETS.CPP
/c /I"C:\PROGRAM FILES (X86)\MYSQL\CONNECTOR C++ 8.0\INCLUDE" /I"C:\PROGRAM FILES (X86)\MYSQL\MYSQL-5.7.26-WIN32\INCLUDE" /I"C:\PROGRAM FILES (X86)\MYSQL\MYSQL_SERVER-5.7.26-WIN32\INCLUDE" /I"C:\PROGRAM FILES (X86)\MYSQL\CONNECTOR C++ 8.0\INCLUDE" /ZI /JMC /nologo /W3 /WX- /diagnostics:classic /sdl /Od /Oy- /D _CRT_SECURE_NO_WARNINGS /D _UNICODE /D UNICODE /Gm- /EHsc /RTC1 /MDd /GS /fp:precise /permissive- /Zc:wchar_t /Zc:forScope /Zc:inline /Fo"DEBUG\\" /Fd"DEBUG\VC141.PDB" /Gd /TP /analyze- /FC C:\USERS\MEREN\DOCUMENTS\ENDGAME\ENDGAME\SRC\OFFSETS.CPP
^C:\USERS\MEREN\DOCUMENTS\ENDGAME\ENDGAME\SRC\BHOP.CPP
/c /I"C:\PROGRAM FILES (X86)\MYSQL\CONNECTOR C++ 8.0\INCLUDE" /I"C:\PROGRAM FILES (X86)\MYSQL\MYSQL-5.7.26-WIN32\INCLUDE" /I"C:\PROGRAM FILES (X86)\MYSQL\MYSQL_SERVER-5.7.26-WIN32\INCLUDE" /I"C:\PROGRAM FILES (X86)\MYSQL\CONNECTOR C++ 8.0\INCLUDE" /ZI /JMC /nologo /W3 /WX- /diagnostics:classic /sdl /Od /Oy- /D _CRT_SECURE_NO_WARNINGS /D _UNICODE /D UNICODE /Gm- /EHsc /RTC1 /MDd /GS /fp:precise /permissive- /Zc:wchar_t /Zc:forScope /Zc:inline /Fo"DEBUG\\" /Fd"DEBUG\VC141.PDB" /Gd /TP /analyze- /FC C:\USERS\MEREN\DOCUMENTS\ENDGAME\ENDGAME\SRC\BHOP.CPP
^C:\USERS\MEREN\DOCUMENTS\ENDGAME\ENDGAME\SRC\CDRAWINGS.CPP
/c /I"C:\PROGRAM FILES (X86)\MYSQL\CONNECTOR C++ 8.0\INCLUDE" /I"C:\PROGRAM FILES (X86)\MYSQL\MYSQL-5.7.26-WIN32\INCLUDE" /I"C:\PROGRAM FILES (X86)\MYSQL\MYSQL_SERVER-5.7.26-WIN32\INCLUDE" /I"C:\PROGRAM FILES (X86)\MYSQL\CONNECTOR C++ 8.0\INCLUDE" /ZI /JMC /nologo /W3 /WX- /diagnostics:classic /sdl /Od /Oy- /D _CRT_SECURE_NO_WARNINGS /D _UNICODE /D UNICODE /Gm- /EHsc /RTC1 /MDd /GS /fp:precise /permissive- /Zc:wchar_t /Zc:forScope /Zc:inline /Fo"DEBUG\\" /Fd"DEBUG\VC141.PDB" /Gd /TP /analyze- /FC C:\USERS\MEREN\DOCUMENTS\ENDGAME\ENDGAME\SRC\CDRAWINGS.CPP
^C:\USERS\MEREN\DOCUMENTS\ENDGAME\ENDGAME\SRC\CMATH.CPP
/c /I"C:\PROGRAM FILES (X86)\MYSQL\CONNECTOR C++ 8.0\INCLUDE" /I"C:\PROGRAM FILES (X86)\MYSQL\MYSQL-5.7.26-WIN32\INCLUDE" /I"C:\PROGRAM FILES (X86)\MYSQL\MYSQL_SERVER-5.7.26-WIN32\INCLUDE" /I"C:\PROGRAM FILES (X86)\MYSQL\CONNECTOR C++ 8.0\INCLUDE" /ZI /JMC /nologo /W3 /WX- /diagnostics:classic /sdl /Od /Oy- /D _CRT_SECURE_NO_WARNINGS /D _UNICODE /D UNICODE /Gm- /EHsc /RTC1 /MDd /GS /fp:precise /permissive- /Zc:wchar_t /Zc:forScope /Zc:inline /Fo"DEBUG\\" /Fd"DEBUG\VC141.PDB" /Gd /TP /analyze- /FC C:\USERS\MEREN\DOCUMENTS\ENDGAME\ENDGAME\SRC\CMATH.CPP
^C:\USERS\MEREN\DOCUMENTS\ENDGAME\ENDGAME\SRC\TRIGGERBOT.CPP
/c /I"C:\PROGRAM FILES (X86)\MYSQL\CONNECTOR C++ 8.0\INCLUDE" /I"C:\PROGRAM FILES (X86)\MYSQL\MYSQL-5.7.26-WIN32\INCLUDE" /I"C:\PROGRAM FILES (X86)\MYSQL\MYSQL_SERVER-5.7.26-WIN32\INCLUDE" /I"C:\PROGRAM FILES (X86)\MYSQL\CONNECTOR C++ 8.0\INCLUDE" /ZI /JMC /nologo /W3 /WX- /diagnostics:classic /sdl /Od /Oy- /D _CRT_SECURE_NO_WARNINGS /D _UNICODE /D UNICODE /Gm- /EHsc /RTC1 /MDd /GS /fp:precise /permissive- /Zc:wchar_t /Zc:forScope /Zc:inline /Fo"DEBUG\\" /Fd"DEBUG\VC141.PDB" /Gd /TP /analyze- /FC C:\USERS\MEREN\DOCUMENTS\ENDGAME\ENDGAME\SRC\TRIGGERBOT.CPP
^C:\USERS\MEREN\DOCUMENTS\ENDGAME\ENDGAME\SRC\CESP.CPP
/c /I"C:\PROGRAM FILES (X86)\MYSQL\CONNECTOR C++ 8.0\INCLUDE" /I"C:\PROGRAM FILES (X86)\MYSQL\MYSQL-5.7.26-WIN32\INCLUDE" /I"C:\PROGRAM FILES (X86)\MYSQL\MYSQL_SERVER-5.7.26-WIN32\INCLUDE" /I"C:\PROGRAM FILES (X86)\MYSQL\CONNECTOR C++ 8.0\INCLUDE" /ZI /JMC /nologo /W3 /WX- /diagnostics:classic /sdl /Od /Oy- /D _CRT_SECURE_NO_WARNINGS /D _UNICODE /D UNICODE /Gm- /EHsc /RTC1 /MDd /GS /fp:precise /permissive- /Zc:wchar_t /Zc:forScope /Zc:inline /Fo"DEBUG\\" /Fd"DEBUG\VC141.PDB" /Gd /TP /analyze- /FC C:\USERS\MEREN\DOCUMENTS\ENDGAME\ENDGAME\SRC\CESP.CPP
^C:\USERS\MEREN\DOCUMENTS\ENDGAME\ENDGAME\SRC\CMAIN.CPP
/c /I"C:\PROGRAM FILES (X86)\MYSQL\CONNECTOR C++ 8.0\INCLUDE" /I"C:\PROGRAM FILES (X86)\MYSQL\MYSQL-5.7.26-WIN32\INCLUDE" /I"C:\PROGRAM FILES (X86)\MYSQL\MYSQL_SERVER-5.7.26-WIN32\INCLUDE" /I"C:\PROGRAM FILES (X86)\MYSQL\CONNECTOR C++ 8.0\INCLUDE" /ZI /JMC /nologo /W3 /WX- /diagnostics:classic /sdl /Od /Oy- /D _CRT_SECURE_NO_WARNINGS /D _UNICODE /D UNICODE /Gm- /EHsc /RTC1 /MDd /GS /fp:precise /permissive- /Zc:wchar_t /Zc:forScope /Zc:inline /Fo"DEBUG\\" /Fd"DEBUG\VC141.PDB" /Gd /TP /analyze- /FC C:\USERS\MEREN\DOCUMENTS\ENDGAME\ENDGAME\SRC\CMAIN.CPP
^C:\USERS\MEREN\DOCUMENTS\ENDGAME\ENDGAME\SRC\CDIRECTX.CPP
/c /I"C:\PROGRAM FILES (X86)\MYSQL\CONNECTOR C++ 8.0\INCLUDE" /I"C:\PROGRAM FILES (X86)\MYSQL\MYSQL-5.7.26-WIN32\INCLUDE" /I"C:\PROGRAM FILES (X86)\MYSQL\MYSQL_SERVER-5.7.26-WIN32\INCLUDE" /I"C:\PROGRAM FILES (X86)\MYSQL\CONNECTOR C++ 8.0\INCLUDE" /ZI /JMC /nologo /W3 /WX- /diagnostics:classic /sdl /Od /Oy- /D _CRT_SECURE_NO_WARNINGS /D _UNICODE /D UNICODE /Gm- /EHsc /RTC1 /MDd /GS /fp:precise /permissive- /Zc:wchar_t /Zc:forScope /Zc:inline /Fo"DEBUG\\" /Fd"DEBUG\VC141.PDB" /Gd /TP /analyze- /FC C:\USERS\MEREN\DOCUMENTS\ENDGAME\ENDGAME\SRC\CDIRECTX.CPP
^C:\USERS\MEREN\DOCUMENTS\ENDGAME\ENDGAME\SRC\AIMBOT.CPP
/c /I"C:\PROGRAM FILES (X86)\MYSQL\CONNECTOR C++ 8.0\INCLUDE" /I"C:\PROGRAM FILES (X86)\MYSQL\MYSQL-5.7.26-WIN32\INCLUDE" /I"C:\PROGRAM FILES (X86)\MYSQL\MYSQL_SERVER-5.7.26-WIN32\INCLUDE" /I"C:\PROGRAM FILES (X86)\MYSQL\CONNECTOR C++ 8.0\INCLUDE" /ZI /JMC /nologo /W3 /WX- /diagnostics:classic /sdl /Od /Oy- /D _CRT_SECURE_NO_WARNINGS /D _UNICODE /D UNICODE /Gm- /EHsc /RTC1 /MDd /GS /fp:precise /permissive- /Zc:wchar_t /Zc:forScope /Zc:inline /Fo"DEBUG\\" /Fd"DEBUG\VC141.PDB" /Gd /TP /analyze- /FC C:\USERS\MEREN\DOCUMENTS\ENDGAME\ENDGAME\SRC\AIMBOT.CPP
